…
- Filtered out rows in a dataset where all of the specified variables
  (snow, snwd, tmax, tmin, and prcp) are missing.

### Most common snowfall values:

``` r
ny_noaa_cleaned %>% 
  count(snow) %>% 
  arrange(desc(n)) 
```

    ## # A tibble: 282 × 2
    ##     snow       n
    ##    <int>   <int>
    ##  1     0 2007240
    ##  2    NA  308654
    ##  3    25   30981
    ##  4    13   23082
    ##  5    51   18253
    ##  6    76   10159
    ##  7     8    9959
    ##  8     5    9742
    ##  9    38    9186
    ## 10     3    8786
    ## # ℹ 272 more rows
…
